1119_ram_windows/1119_ram_windows.sim/sim_1/behav/xsim/simulate.log
Vivado Simulator 2020.2
Time resolution is 1 ps
[GEN] address: 03f, w_data: 58, r_data: xx
[DRV] address: 03f, w_data: 58, r_data: xx
[MON] address: 03f, w_data: 58, r_data: xx
[SCB] address: 03f, w_data: 58, r_data: xx
 
[GEN] address: 033, w_data: 35, r_data: xx
[DRV] address: 033, w_data: 35, r_data: xx
[MON] address: 033, w_data: 35, r_data: 58
[SCB] address: 033, w_data: 35, r_data: 58
 
[GEN] address: 30b, w_data: d8, r_data: xx
[DRV] address: 30b, w_data: d8, r_data: xx
[MON] address: 30b, w_data: d8, r_data: 35
[SCB] address: 30b, w_data: d8, r_data: 35
 
[GEN] address: 02d, w_data: 4a, r_data: xx
[DRV] address: 02d, w_data: 4a, r_data: xx
[MON] address: 02d, w_data: 4a, r_data: d8
[SCB] address: 02d, w_data: 4a, r_data: d8
 
[GEN] address: 230, w_data: 61, r_data: xx
[DRV] address: 230, w_data: 61, r_data: xx
[MON] address: 230, w_data: 61, r_data: 4a
[SCB] address: 230, w_data: 61, r_data: 4a
 
[GEN] address: 37f, w_data: 3b, r_data: xx
[DRV] address: 37f, w_data: 3b, r_data: xx
[MON] address: 37f, w_data: 3b, r_data: 61
[SCB] address: 37f, w_data: 3b, r_data: 61
 
[GEN] address: 339, w_data: ad, r_data: xx
[DRV] address: 339, w_data: ad, r_data: xx
[MON] address: 339, w_data: ad, r_data: 3b
[SCB] address: 339, w_data: ad, r_data: 3b
 
[GEN] address: 085, w_data: 6a, r_data: xx
[DRV] address: 085, w_data: 6a, r_data: xx
[MON] address: 085, w_data: 6a, r_data: ad
[SCB] address: 085, w_data: 6a, r_data: ad
 
[GEN] address: 00e, w_data: 05, r_data: xx
[DRV] address: 00e, w_data: 05, r_data: xx
[MON] address: 00e, w_data: 05, r_data: 6a
[SCB] address: 00e, w_data: 05, r_data: 6a
 
[GEN] address: 2a5, w_data: 47, r_data: xx
[DRV] address: 2a5, w_data: 47, r_data: xx
[MON] address: 2a5, w_data: 47, r_data: 05
[SCB] address: 2a5, w_data: 47, r_data: 05
 
[GEN] address: 3b2, w_data: 2b, r_data: xx
[DRV] address: 3b2, w_data: 2b, r_data: xx
[MON] address: 3b2, w_data: 2b, r_data: 47
[SCB] address: 3b2, w_data: 2b, r_data: 47
 
[GEN] address: 0b1, w_data: c0, r_data: xx
[DRV] address: 0b1, w_data: c0, r_data: xx
[MON] address: 0b1, w_data: c0, r_data: 2b
[SCB] address: 0b1, w_data: c0, r_data: 2b
 
[GEN] address: 330, w_data: 57, r_data: xx
[DRV] address: 330, w_data: 57, r_data: xx
[MON] address: 330, w_data: 57, r_data: c0
[SCB] address: 330, w_data: 57, r_data: c0
 
[GEN] address: 307, w_data: e2, r_data: xx
[DRV] address: 307, w_data: e2, r_data: xx
[MON] address: 307, w_data: e2, r_data: 57
[SCB] address: 307, w_data: e2, r_data: 57
 
[GEN] address: 282, w_data: b9, r_data: xx
[DRV] address: 282, w_data: b9, r_data: xx
[MON] address: 282, w_data: b9, r_data: e2
[SCB] address: 282, w_data: b9, r_data: e2
 
[GEN] address: 2a2, w_data: b2, r_data: xx
[DRV] address: 2a2, w_data: b2, r_data: xx
[MON] address: 2a2, w_data: b2, r_data: b9
[SCB] address: 2a2, w_data: b2, r_data: b9
 
[GEN] address: 310, w_data: a9, r_data: xx
[DRV] address: 310, w_data: a9, r_data: xx
[MON] address: 310, w_data: a9, r_data: b2
[SCB] address: 310, w_data: a9, r_data: b2
 
[GEN] address: 094, w_data: 92, r_data: xx
[DRV] address: 094, w_data: 92, r_data: xx
[MON] address: 094, w_data: 92, r_data: a9
[SCB] address: 094, w_data: 92, r_data: a9
 
[GEN] address: 162, w_data: 36, r_data: xx
[DRV] address: 162, w_data: 36, r_data: xx
[MON] address: 162, w_data: 36, r_data: 92
[SCB] address: 162, w_data: 36, r_data: 92
 
[GEN] address: 344, w_data: 72, r_data: xx
[DRV] address: 344, w_data: 72, r_data: xx
[MON] address: 344, w_data: 72, r_data: 36
[SCB] address: 344, w_data: 72, r_data: 36
 
[GEN] address: 0df, w_data: d8, r_data: xx
[DRV] address: 0df, w_data: d8, r_data: xx
[MON] address: 0df, w_data: d8, r_data: 72
[SCB] address: 0df, w_data: d8, r_data: 72
 
[GEN] address: 204, w_data: 42, r_data: xx
[DRV] address: 204, w_data: 42, r_data: xx
[MON] address: 204, w_data: 42, r_data: d8
[SCB] address: 204, w_data: 42, r_data: d8
 
[GEN] address: 30e, w_data: 48, r_data: xx
[DRV] address: 30e, w_data: 48, r_data: xx
[MON] address: 30e, w_data: 48, r_data: 42
[SCB] address: 30e, w_data: 48, r_data: 42
 
[GEN] address: 2b4, w_data: ed, r_data: xx
[DRV] address: 2b4, w_data: ed, r_data: xx
[MON] address: 2b4, w_data: ed, r_data: 48
[SCB] address: 2b4, w_data: ed, r_data: 48
 
[GEN] address: 120, w_data: b9, r_data: xx
[DRV] address: 120, w_data: b9, r_data: xx
[MON] address: 120, w_data: b9, r_data: ed
[SCB] address: 120, w_data: b9, r_data: ed
 
[GEN] address: 22f, w_data: 2e, r_data: xx
[DRV] address: 22f, w_data: 2e, r_data: xx
[MON] address: 22f, w_data: 2e, r_data: b9
[SCB] address: 22f, w_data: 2e, r_data: b9
 
[GEN] address: 201, w_data: e4, r_data: xx
[DRV] address: 201, w_data: e4, r_data: xx
[MON] address: 201, w_data: e4, r_data: 2e
[SCB] address: 201, w_data: e4, r_data: 2e
 
[GEN] address: 01c, w_data: 22, r_data: xx
[DRV] address: 01c, w_data: 22, r_data: xx
[MON] address: 01c, w_data: 22, r_data: e4
[SCB] address: 01c, w_data: 22, r_data: e4
 
[GEN] address: 19d, w_data: 4b, r_data: xx
[DRV] address: 19d, w_data: 4b, r_data: xx
[MON] address: 19d, w_data: 4b, r_data: 22
[SCB] address: 19d, w_data: 4b, r_data: 22
 
[GEN] address: 350, w_data: 9e, r_data: xx
[DRV] address: 350, w_data: 9e, r_data: xx
[MON] address: 350, w_data: 9e, r_data: 4b
[SCB] address: 350, w_data: 9e, r_data: 4b
 
[GEN] address: 32f, w_data: 6c, r_data: xx
[DRV] address: 32f, w_data: 6c, r_data: xx
[MON] address: 32f, w_data: 6c, r_data: 9e
[SCB] address: 32f, w_data: 6c, r_data: 9e
 
[GEN] address: 2c0, w_data: cc, r_data: xx
[DRV] address: 2c0, w_data: cc, r_data: xx
[MON] address: 2c0, w_data: cc, r_data: 6c
[SCB] address: 2c0, w_data: cc, r_data: 6c
 
[GEN] address: 1b8, w_data: 11, r_data: xx
[DRV] address: 1b8, w_data: 11, r_data: xx
[MON] address: 1b8, w_data: 11, r_data: cc
[SCB] address: 1b8, w_data: 11, r_data: cc
 
[GEN] address: 06b, w_data: e7, r_data: xx
[DRV] address: 06b, w_data: e7, r_data: xx
[MON] address: 06b, w_data: e7, r_data: 11
[SCB] address: 06b, w_data: e7, r_data: 11
 
[GEN] address: 17d, w_data: 2b, r_data: xx
[DRV] address: 17d, w_data: 2b, r_data: xx
[MON] address: 17d, w_data: 2b, r_data: e7
[SCB] address: 17d, w_data: 2b, r_data: e7
 
[GEN] address: 1b4, w_data: 35, r_data: xx
[DRV] address: 1b4, w_data: 35, r_data: xx
[MON] address: 1b4, w_data: 35, r_data: 2b
[SCB] address: 1b4, w_data: 35, r_data: 2b
 
[GEN] address: 13c, w_data: 1f, r_data: xx
[DRV] address: 13c, w_data: 1f, r_data: xx
[MON] address: 13c, w_data: 1f, r_data: 35
[SCB] address: 13c, w_data: 1f, r_data: 35
 
[GEN] address: 01d, w_data: ba, r_data: xx
[DRV] address: 01d, w_data: ba, r_data: xx
[MON] address: 01d, w_data: ba, r_data: 1f
[SCB] address: 01d, w_data: ba, r_data: 1f
 
[GEN] address: 14a, w_data: d1, r_data: xx
[DRV] address: 14a, w_data: d1, r_data: xx
[MON] address: 14a, w_data: d1, r_data: ba
[SCB] address: 14a, w_data: d1, r_data: ba
 
[GEN] address: 1ef, w_data: 87, r_data: xx
[DRV] address: 1ef, w_data: 87, r_data: xx
[MON] address: 1ef, w_data: 87, r_data: d1
[SCB] address: 1ef, w_data: 87, r_data: d1
 
[GEN] address: 3f0, w_data: 0c, r_data: xx
[DRV] address: 3f0, w_data: 0c, r_data: xx
[MON] address: 3f0, w_data: 0c, r_data: 87
[SCB] address: 3f0, w_data: 0c, r_data: 87
 
[GEN] address: 141, w_data: 3a, r_data: xx
[DRV] address: 141, w_data: 3a, r_data: xx
[MON] address: 141, w_data: 3a, r_data: 0c
[SCB] address: 141, w_data: 3a, r_data: 0c
 
[GEN] address: 3dd, w_data: 30, r_data: xx
[DRV] address: 3dd, w_data: 30, r_data: xx
[MON] address: 3dd, w_data: 30, r_data: 3a
[SCB] address: 3dd, w_data: 30, r_data: 3a
 
[GEN] address: 3c1, w_data: cd, r_data: xx
[DRV] address: 3c1, w_data: cd, r_data: xx
[MON] address: 3c1, w_data: cd, r_data: 30
[SCB] address: 3c1, w_data: cd, r_data: 30
 
[GEN] address: 13d, w_data: 02, r_data: xx
[DRV] address: 13d, w_data: 02, r_data: xx
[MON] address: 13d, w_data: 02, r_data: cd
[SCB] address: 13d, w_data: 02, r_data: cd
 
[GEN] address: 108, w_data: 1a, r_data: xx
[DRV] address: 108, w_data: 1a, r_data: xx
[MON] address: 108, w_data: 1a, r_data: 02
[SCB] address: 108, w_data: 1a, r_data: 02
 
[GEN] address: 033, w_data: c9, r_data: xx
[DRV] address: 033, w_data: c9, r_data: xx
[MON] address: 033, w_data: c9, r_data: 1a
[SCB] address: 033, w_data: c9, r_data: 1a
 
[GEN] address: 0e8, w_data: 70, r_data: xx
[DRV] address: 0e8, w_data: 70, r_data: xx
[MON] address: 0e8, w_data: 70, r_data: c9
[SCB] address: 0e8, w_data: 70, r_data: c9
 
[GEN] address: 1cc, w_data: f0, r_data: xx
[DRV] address: 1cc, w_data: f0, r_data: xx
[MON] address: 1cc, w_data: f0, r_data: 70
[SCB] address: 1cc, w_data: f0, r_data: 70
 
[GEN] address: 28a, w_data: ff, r_data: xx
[DRV] address: 28a, w_data: ff, r_data: xx
[MON] address: 28a, w_data: ff, r_data: f0
[SCB] address: 28a, w_data: ff, r_data: f0
 
[GEN] address: 2b9, w_data: 72, r_data: xx
[DRV] address: 2b9, w_data: 72, r_data: xx
