1121_fifo/1121_fifo.sim/sim_1/behav/xsim/simulate.log
Vivado Simulator 2020.2
Time resolution is 1 ps
[DRV] DUT Reset Done!
---------------------
[GEN] op: 0, wdata: 237, wr_en: x, full: x, rdata:   x, rd_en: x, empty: x
[DRV] op: 0, wdata: 237, wr_en: x, full: x, rdata:   x, rd_en: x, empty: x
[MON] op: x, wdata:   0, wr_en: 0, full: 0, rdata:   x, rd_en: 1, empty: 1
[SCB] op: x, wdata:   0, wr_en: 0, full: 0, rdata:   x, rd_en: 1, empty: 1
[SCB] queue is empty
'{}
--------------------
[GEN] op: 1, wdata:  17, wr_en: x, full: x, rdata:   x, rd_en: x, empty: x
[DRV] op: 1, wdata:  17, wr_en: x, full: x, rdata:   x, rd_en: x, empty: x
[MON] op: x, wdata:  17, wr_en: 1, full: 0, rdata:   x, rd_en: 0, empty: 1
[SCB] op: x, wdata:  17, wr_en: 1, full: 0, rdata:   x, rd_en: 0, empty: 1
[SCB] data stored in queue :  17
'{17}
--------------------
[GEN] op: 1, wdata: 156, wr_en: x, full: x, rdata:   x, rd_en: x, empty: x
[DRV] op: 1, wdata: 156, wr_en: x, full: x, rdata:   x, rd_en: x, empty: x
[MON] op: x, wdata: 156, wr_en: 1, full: 0, rdata:  17, rd_en: 0, empty: 0
[SCB] op: x, wdata: 156, wr_en: 1, full: 0, rdata:  17, rd_en: 0, empty: 0
[SCB] data stored in queue : 156
'{156,17}
--------------------
[GEN] op: 0, wdata:  96, wr_en: x, full: x, rdata:   x, rd_en: x, empty: x
[DRV] op: 0, wdata:  96, wr_en: x, full: x, rdata:   x, rd_en: x, empty: x
[MON] op: x, wdata: 156, wr_en: 0, full: 0, rdata:  17, rd_en: 1, empty: 0
[SCB] op: x, wdata: 156, wr_en: 0, full: 0, rdata:  17, rd_en: 1, empty: 0
[SCB] data read in queue :  17
PASS!!!!
'{156}
--------------------
[GEN] op: 0, wdata: 123, wr_en: x, full: x, rdata:   x, rd_en: x, empty: x
[DRV] op: 0, wdata: 123, wr_en: x, full: x, rdata:   x, rd_en: x, empty: x
[MON] op: x, wdata: 156, wr_en: 0, full: 0, rdata: 156, rd_en: 1, empty: 0
[SCB] op: x, wdata: 156, wr_en: 0, full: 0, rdata: 156, rd_en: 1, empty: 0
[SCB] data read in queue : 156
PASS!!!!
'{}
--------------------
[GEN] op: 1, wdata:  50, wr_en: x, full: x, rdata:   x, rd_en: x, empty: x
[DRV] op: 1, wdata:  50, wr_en: x, full: x, rdata:   x, rd_en: x, empty: x
[MON] op: x, wdata:  50, wr_en: 1, full: 0, rdata:   x, rd_en: 0, empty: 1
[SCB] op: x, wdata:  50, wr_en: 1, full: 0, rdata:   x, rd_en: 0, empty: 1
[SCB] data stored in queue :  50
'{50}
--------------------
[GEN] op: 0, wdata:  67, wr_en: x, full: x, rdata:   x, rd_en: x, empty: x
[DRV] op: 0, wdata:  67, wr_en: x, full: x, rdata:   x, rd_en: x, empty: x
[MON] op: x, wdata:  50, wr_en: 0, full: 0, rdata:  50, rd_en: 1, empty: 0
[SCB] op: x, wdata:  50, wr_en: 0, full: 0, rdata:  50, rd_en: 1, empty: 0
[SCB] data read in queue :  50
PASS!!!!
'{}
--------------------
[GEN] op: 0, wdata: 140, wr_en: x, full: x, rdata:   x, rd_en: x, empty: x
[DRV] op: 0, wdata: 140, wr_en: x, full: x, rdata:   x, rd_en: x, empty: x
[MON] op: x, wdata:  50, wr_en: 0, full: 0, rdata:   x, rd_en: 1, empty: 1
[SCB] op: x, wdata:  50, wr_en: 0, full: 0, rdata:   x, rd_en: 1, empty: 1
[SCB] queue is empty
'{}
--------------------
[GEN] op: 0, wdata: 194, wr_en: x, full: x, rdata:   x, rd_en: x, empty: x
[DRV] op: 0, wdata: 194, wr_en: x, full: x, rdata:   x, rd_en: x, empty: x
[MON] op: x, wdata:  50, wr_en: 0, full: 0, rdata:   x, rd_en: 1, empty: 1
[SCB] op: x, wdata:  50, wr_en: 0, full: 0, rdata:   x, rd_en: 1, empty: 1
[SCB] queue is empty
'{}
--------------------
[GEN] op: 0, wdata:  86, wr_en: x, full: x, rdata:   x, rd_en: x, empty: x
[DRV] op: 0, wdata:  86, wr_en: x, full: x, rdata:   x, rd_en: x, empty: x
[MON] op: x, wdata:  50, wr_en: 0, full: 0, rdata:   x, rd_en: 1, empty: 1
[SCB] op: x, wdata:  50, wr_en: 0, full: 0, rdata:   x, rd_en: 1, empty: 1
[SCB] queue is empty
'{}
--------------------
[GEN] op: 1, wdata: 185, wr_en: x, full: x, rdata:   x, rd_en: x, empty: x
[DRV] op: 1, wdata: 185, wr_en: x, full: x, rdata:   x, rd_en: x, empty: x
[MON] op: x, wdata: 185, wr_en: 1, full: 0, rdata:   x, rd_en: 0, empty: 1
[SCB] op: x, wdata: 185, wr_en: 1, full: 0, rdata:   x, rd_en: 0, empty: 1
[SCB] data stored in queue : 185
'{185}
--------------------
[GEN] op: 0, wdata: 151, wr_en: x, full: x, rdata:   x, rd_en: x, empty: x
[DRV] op: 0, wdata: 151, wr_en: x, full: x, rdata:   x, rd_en: x, empty: x
[MON] op: x, wdata: 185, wr_en: 0, full: 0, rdata: 185, rd_en: 1, empty: 0
[SCB] op: x, wdata: 185, wr_en: 0, full: 0, rdata: 185, rd_en: 1, empty: 0
[SCB] data read in queue : 185
PASS!!!!
'{}
--------------------
[GEN] op: 0, wdata: 238, wr_en: x, full: x, rdata:   x, rd_en: x, empty: x
[DRV] op: 0, wdata: 238, wr_en: x, full: x, rdata:   x, rd_en: x, empty: x
[MON] op: x, wdata: 185, wr_en: 0, full: 0, rdata:   x, rd_en: 1, empty: 1
[SCB] op: x, wdata: 185, wr_en: 0, full: 0, rdata:   x, rd_en: 1, empty: 1
[SCB] queue is empty
'{}
--------------------
[GEN] op: 0, wdata: 245, wr_en: x, full: x, rdata:   x, rd_en: x, empty: x
[DRV] op: 0, wdata: 245, wr_en: x, full: x, rdata:   x, rd_en: x, empty: x
[MON] op: x, wdata: 185, wr_en: 0, full: 0, rdata:   x, rd_en: 1, empty: 1
[SCB] op: x, wdata: 185, wr_en: 0, full: 0, rdata:   x, rd_en: 1, empty: 1
[SCB] queue is empty
'{}
--------------------
[GEN] op: 0, wdata:   2, wr_en: x, full: x, rdata:   x, rd_en: x, empty: x
[DRV] op: 0, wdata:   2, wr_en: x, full: x, rdata:   x, rd_en: x, empty: x
[MON] op: x, wdata: 185, wr_en: 0, full: 0, rdata:   x, rd_en: 1, empty: 1
[SCB] op: x, wdata: 185, wr_en: 0, full: 0, rdata:   x, rd_en: 1, empty: 1
[SCB] queue is empty
'{}
--------------------
[GEN] op: 0, wdata:  16, wr_en: x, full: x, rdata:   x, rd_en: x, empty: x
[DRV] op: 0, wdata:  16, wr_en: x, full: x, rdata:   x, rd_en: x, empty: x
[MON] op: x, wdata: 185, wr_en: 0, full: 0, rdata:   x, rd_en: 1, empty: 1
[SCB] op: x, wdata: 185, wr_en: 0, full: 0, rdata:   x, rd_en: 1, empty: 1
[SCB] queue is empty
'{}
--------------------
[GEN] op: 0, wdata:  61, wr_en: x, full: x, rdata:   x, rd_en: x, empty: x
[DRV] op: 0, wdata:  61, wr_en: x, full: x, rdata:   x, rd_en: x, empty: x
[MON] op: x, wdata: 185, wr_en: 0, full: 0, rdata:   x, rd_en: 1, empty: 1
[SCB] op: x, wdata: 185, wr_en: 0, full: 0, rdata:   x, rd_en: 1, empty: 1
[SCB] queue is empty
'{}
--------------------
[GEN] op: 0, wdata: 249, wr_en: x, full: x, rdata:   x, rd_en: x, empty: x
[DRV] op: 0, wdata: 249, wr_en: x, full: x, rdata:   x, rd_en: x, empty: x
[MON] op: x, wdata: 185, wr_en: 0, full: 0, rdata:   x, rd_en: 1, empty: 1
[SCB] op: x, wdata: 185, wr_en: 0, full: 0, rdata:   x, rd_en: 1, empty: 1
[SCB] queue is empty
'{}
--------------------
[GEN] op: 1, wdata: 133, wr_en: x, full: x, rdata:   x, rd_en: x, empty: x
[DRV] op: 1, wdata: 133, wr_en: x, full: x, rdata:   x, rd_en: x, empty: x
[MON] op: x, wdata: 133, wr_en: 1, full: 0, rdata:   x, rd_en: 0, empty: 1
[SCB] op: x, wdata: 133, wr_en: 1, full: 0, rdata:   x, rd_en: 0, empty: 1
[SCB] data stored in queue : 133
'{133}
--------------------
[GEN] op: 0, wdata: 110, wr_en: x, full: x, rdata:   x, rd_en: x, empty: x
[DRV] op: 0, wdata: 110, wr_en: x, full: x, rdata:   x, rd_en: x, empty: x
[MON] op: x, wdata: 133, wr_en: 0, full: 0, rdata: 133, rd_en: 1, empty: 0
[SCB] op: x, wdata: 133, wr_en: 0, full: 0, rdata: 133, rd_en: 1, empty: 0
[SCB] data read in queue : 133
PASS!!!!
'{}
--------------------
[GEN] op: 1, wdata: 236, wr_en: x, full: x, rdata:   x, rd_en: x, empty: x
[DRV] op: 1, wdata: 236, wr_en: x, full: x, rdata:   x, rd_en: x, empty: x
[MON] op: x, wdata: 236, wr_en: 1, full: 0, rdata:   x, rd_en: 0, empty: 1
[SCB] op: x, wdata: 236, wr_en: 1, full: 0, rdata:   x, rd_en: 0, empty: 1
[SCB] data stored in queue : 236
'{236}
--------------------
[GEN] op: 0, wdata:  71, wr_en: x, full: x, rdata:   x, rd_en: x, empty: x
[DRV] op: 0, wdata:  71, wr_en: x, full: x, rdata:   x, rd_en: x, empty: x
[MON] op: x, wdata: 236, wr_en: 0, full: 0, rdata: 236, rd_en: 1, empty: 0
[SCB] op: x, wdata: 236, wr_en: 0, full: 0, rdata: 236, rd_en: 1, empty: 0
[SCB] data read in queue : 236
PASS!!!!
'{}
--------------------
[GEN] op: 0, wdata: 246, wr_en: x, full: x, rdata:   x, rd_en: x, empty: x
[DRV] op: 0, wdata: 246, wr_en: x, full: x, rdata:   x, rd_en: x, empty: x
[MON] op: x, wdata: 236, wr_en: 0, full: 0, rdata:   x, rd_en: 1, empty: 1
[SCB] op: x, wdata: 236, wr_en: 0, full: 0, rdata:   x, rd_en: 1, empty: 1
[SCB] queue is empty
'{}
--------------------
[GEN] op: 0, wdata:  78, wr_en: x, full: x, rdata:   x, rd_en: x, empty: x
[DRV] op: 0, wdata:  78, wr_en: x, full: x, rdata:   x, rd_en: x, empty: x
[MON] op: x, wdata: 236, wr_en: 0, full: 0, rdata:   x, rd_en: 1, empty: 1
[SCB] op: x, wdata: 236, wr_en: 0, full: 0, rdata:   x, rd_en: 1, empty: 1
[SCB] queue is empty
'{}
--------------------
[GEN] op: 0, wdata: 197, wr_en: x, full: x, rdata:   x, rd_en: x, empty: x
[DRV] op: 0, wdata: 197, wr_en: x, full: x, rdata:   x, rd_en: x, empty: x
[MON] op: x, wdata: 236, wr_en: 0, full: 0, rdata:   x, rd_en: 1, empty: 1
[SCB] op: x, wdata: 236, wr_en: 0, full: 0, rdata:   x, rd_en: 1, empty: 1
[SCB] queue is empty
'{}
--------------------
[GEN] op: 0, wdata:  76, wr_en: x, full: x, rdata:   x, rd_en: x, empty: x
[DRV] op: 0, wdata:  76, wr_en: x, full: x, rdata:   x, rd_en: x, empty: x
[MON] op: x, wdata: 236, wr_en: 0, full: 0, rdata:   x, rd_en: 1, empty: 1
[SCB] op: x, wdata: 236, wr_en: 0, full: 0, rdata:   x, rd_en: 1, empty: 1
[SCB] queue is empty
'{}
--------------------
[GEN] op: 0, wdata: 203, wr_en: x, full: x, rdata:   x, rd_en: x, empty: x
[DRV] op: 0, wdata: 203, wr_en: x, full: x, rdata:   x, rd_en: x, empty: x
[MON] op: x, wdata: 236, wr_en: 0, full: 0, rdata:   x, rd_en: 1, empty: 1
[SCB] op: x, wdata: 236, wr_en: 0, full: 0, rdata:   x, rd_en: 1, empty: 1
[SCB] queue is empty
'{}
--------------------
[GEN] op: 0, wdata: 242, wr_en: x, full: x, rdata:   x, rd_en: x, empty: x
[DRV] op: 0, wdata: 242, wr_en: x, full: x, rdata:   x, rd_en: x, empty: x
[MON] op: x, wdata: 236, wr_en: 0, full: 0, rdata:   x, rd_en: 1, empty: 1
[SCB] op: x, wdata: 236, wr_en: 0, full: 0, rdata:   x, rd_en: 1, empty: 1
[SCB] queue is empty
'{}
--------------------
[GEN] op: 0, wdata: 255, wr_en: x, full: x, rdata:   x, rd_en: x, empty: x
[DRV] op: 0, wdata: 255, wr_en: x, full: x, rdata:   x, rd_en: x, empty: x
[MON] op: x, wdata: 236, wr_en: 0, full: 0, rdata:   x, rd_en: 1, empty: 1
[SCB] op: x, wdata: 236, wr_en: 0, full: 0, rdata:   x, rd_en: 1, empty: 1
[SCB] queue is empty
'{}
--------------------
[GEN] op: 0, wdata: 126, wr_en: x, full: x, rdata:   x, rd_en: x, empty: x
[DRV] op: 0, wdata: 126, wr_en: x, full: x, rdata:   x, rd_en: x, empty: x
[MON] op: x, wdata: 236, wr_en: 0, full: 0, rdata:   x, rd_en: 1, empty: 1
[SCB] op: x, wdata: 236, wr_en: 0, full: 0, rdata:   x, rd_en: 1, empty: 1
[SCB] queue is empty
'{}
--------------------
[GEN] op: 1, wdata:  37, wr_en: x, full: x, rdata:   x, rd_en: x, empty: x
[DRV] op: 1, wdata:  37, wr_en: x, full: x, rdata:   x, rd_en: x, empty: x
[MON] op: x, wdata:  37, wr_en: 1, full: 0, rdata:   x, rd_en: 0, empty: 1
[SCB] op: x, wdata:  37, wr_en: 1, full: 0, rdata:   x, rd_en: 0, empty: 1
[SCB] data stored in queue :  37
'{37}
--------------------
[GEN] op: 0, wdata: 132, wr_en: x, full: x, rdata:   x, rd_en: x, empty: x
[DRV] op: 0, wdata: 132, wr_en: x, full: x, rdata:   x, rd_en: x, empty: x
[MON] op: x, wdata:  37, wr_en: 0, full: 0, rdata:  37, rd_en: 1, empty: 0
[SCB] op: x, wdata:  37, wr_en: 0, full: 0, rdata:  37, rd_en: 1, empty: 0
[SCB] data read in queue :  37
PASS!!!!
'{}
--------------------
[GEN] op: 0, wdata:  92, wr_en: x, full: x, rdata:   x, rd_en: x, empty: x
[DRV] op: 0, wdata:  92, wr_en: x, full: x, rdata:   x, rd_en: x, empty: x
[MON] op: x, wdata:  37, wr_en: 0, full: 0, rdata:   x, rd_en: 1, empty: 1
[SCB] op: x, wdata:  37, wr_en: 0, full: 0, rdata:   x, rd_en: 1, empty: 1
[SCB] queue is empty
'{}
--------------------
[GEN] op: 1, wdata: 167, wr_en: x, full: x, rdata:   x, rd_en: x, empty: x
[DRV] op: 1, wdata: 167, wr_en: x, full: x, rdata:   x, rd_en: x, empty: x
[MON] op: x, wdata: 167, wr_en: 1, full: 0, rdata:   x, rd_en: 0, empty: 1
[SCB] op: x, wdata: 167, wr_en: 1, full: 0, rdata:   x, rd_en: 0, empty: 1
[SCB] data stored in queue : 167
'{167}
--------------------
[GEN] op: 1, wdata:  74, wr_en: x, full: x, rdata:   x, rd_en: x, empty: x
[DRV] op: 1, wdata:  74, wr_en: x, full: x, rdata:   x, rd_en: x, empty: x
[MON] op: x, wdata:  74, wr_en: 1, full: 0, rdata: 167, rd_en: 0, empty: 0
[SCB] op: x, wdata:  74, wr_en: 1, full: 0, rdata: 167, rd_en: 0, empty: 0
[SCB] data stored in queue :  74
'{74,167}
--------------------
[GEN] op: 0, wdata:  74, wr_en: x, full: x, rdata:   x, rd_en: x, empty: x
[DRV] op: 0, wdata:  74, wr_en: x, full: x, rdata:   x, rd_en: x, empty: x
[MON] op: x, wdata:  74, wr_en: 0, full: 0, rdata: 167, rd_en: 1, empty: 0
[SCB] op: x, wdata:  74, wr_en: 0, full: 0, rdata: 167, rd_en: 1, empty: 0
[SCB] data read in queue : 167
PASS!!!!
'{74}
--------------------
[GEN] op: 0, wdata:  86, wr_en: x, full: x, rdata:   x, rd_en: x, empty: x
[DRV] op: 0, wdata:  86, wr_en: x, full: x, rdata:   x, rd_en: x, empty: x
[MON] op: x, wdata:  74, wr_en: 0, full: 0, rdata:  74, rd_en: 1, empty: 0
[SCB] op: x, wdata:  74, wr_en: 0, full: 0, rdata:  74, rd_en: 1, empty: 0
[SCB] data read in queue :  74
PASS!!!!
'{}
--------------------
[GEN] op: 0, wdata:  68, wr_en: x, full: x, rdata:   x, rd_en: x, empty: x
[DRV] op: 0, wdata:  68, wr_en: x, full: x, rdata:   x, rd_en: x, empty: x
[MON] op: x, wdata:  74, wr_en: 0, full: 0, rdata:   x, rd_en: 1, empty: 1
[SCB] op: x, wdata:  74, wr_en: 0, full: 0, rdata:   x, rd_en: 1, empty: 1
[SCB] queue is empty
'{}
--------------------
[GEN] op: 0, wdata: 170, wr_en: x, full: x, rdata:   x, rd_en: x, empty: x
[DRV] op: 0, wdata: 170, wr_en: x, full: x, rdata:   x, rd_en: x, empty: x
[MON] op: x, wdata:  74, wr_en: 0, full: 0, rdata:   x, rd_en: 1, empty: 1
[SCB] op: x, wdata:  74, wr_en: 0, full: 0, rdata:   x, rd_en: 1, empty: 1
[SCB] queue is empty
'{}
--------------------
[GEN] op: 0, wdata: 229, wr_en: x, full: x, rdata:   x, rd_en: x, empty: x
[DRV] op: 0, wdata: 229, wr_en: x, full: x, rdata:   x, rd_en: x, empty: x
[MON] op: x, wdata:  74, wr_en: 0, full: 0, rdata:   x, rd_en: 1, empty: 1
[SCB] op: x, wdata:  74, wr_en: 0, full: 0, rdata:   x, rd_en: 1, empty: 1
[SCB] queue is empty
'{}
--------------------
[GEN] op: 1, wdata: 166, wr_en: x, full: x, rdata:   x, rd_en: x, empty: x
[DRV] op: 1, wdata: 166, wr_en: x, full: x, rdata:   x, rd_en: x, empty: x
[MON] op: x, wdata: 166, wr_en: 1, full: 0, rdata:   x, rd_en: 0, empty: 1
[SCB] op: x, wdata: 166, wr_en: 1, full: 0, rdata:   x, rd_en: 0, empty: 1
[SCB] data stored in queue : 166
'{166}
--------------------
[GEN] op: 0, wdata: 211, wr_en: x, full: x, rdata:   x, rd_en: x, empty: x
[DRV] op: 0, wdata: 211, wr_en: x, full: x, rdata:   x, rd_en: x, empty: x
[MON] op: x, wdata: 166, wr_en: 0, full: 0, rdata: 166, rd_en: 1, empty: 0
[SCB] op: x, wdata: 166, wr_en: 0, full: 0, rdata: 166, rd_en: 1, empty: 0
[SCB] data read in queue : 166
PASS!!!!
'{}
--------------------
[GEN] op: 1, wdata: 232, wr_en: x, full: x, rdata:   x, rd_en: x, empty: x
[DRV] op: 1, wdata: 232, wr_en: x, full: x, rdata:   x, rd_en: x, empty: x
[MON] op: x, wdata: 232, wr_en: 1, full: 0, rdata:   x, rd_en: 0, empty: 1
[SCB] op: x, wdata: 232, wr_en: 1, full: 0, rdata:   x, rd_en: 0, empty: 1
[SCB] data stored in queue : 232
'{232}
--------------------
[GEN] op: 0, wdata:   0, wr_en: x, full: x, rdata:   x, rd_en: x, empty: x
[DRV] op: 0, wdata:   0, wr_en: x, full: x, rdata:   x, rd_en: x, empty: x
[MON] op: x, wdata: 232, wr_en: 0, full: 0, rdata: 232, rd_en: 1, empty: 0
[SCB] op: x, wdata: 232, wr_en: 0, full: 0, rdata: 232, rd_en: 1, empty: 0
[SCB] data read in queue : 232
PASS!!!!
'{}
--------------------
[GEN] op: 0, wdata:  41, wr_en: x, full: x, rdata:   x, rd_en: x, empty: x
[DRV] op: 0, wdata:  41, wr_en: x, full: x, rdata:   x, rd_en: x, empty: x
[MON] op: x, wdata: 232, wr_en: 0, full: 0, rdata:   x, rd_en: 1, empty: 1
[SCB] op: x, wdata: 232, wr_en: 0, full: 0, rdata:   x, rd_en: 1, empty: 1
[SCB] queue is empty
'{}
--------------------
[GEN] op: 0, wdata: 114, wr_en: x, full: x, rdata:   x, rd_en: x, empty: x
[DRV] op: 0, wdata: 114, wr_en: x, full: x, rdata:   x, rd_en: x, empty: x
[MON] op: x, wdata: 232, wr_en: 0, full: 0, rdata:   x, rd_en: 1, empty: 1
[SCB] op: x, wdata: 232, wr_en: 0, full: 0, rdata:   x, rd_en: 1, empty: 1
[SCB] queue is empty
'{}
--------------------
[GEN] op: 0, wdata: 158, wr_en: x, full: x, rdata:   x, rd_en: x, empty: x
[DRV] op: 0, wdata: 158, wr_en: x, full: x, rdata:   x, rd_en: x, empty: x
[MON] op: x, wdata: 232, wr_en: 0, full: 0, rdata:   x, rd_en: 1, empty: 1
[SCB] op: x, wdata: 232, wr_en: 0, full: 0, rdata:   x, rd_en: 1, empty: 1
[SCB] queue is empty
'{}
--------------------
[GEN] op: 1, wdata: 212, wr_en: x, full: x, rdata:   x, rd_en: x, empty: x
[DRV] op: 1, wdata: 212, wr_en: x, full: x, rdata:   x, rd_en: x, empty: x
[MON] op: x, wdata: 212, wr_en: 1, full: 0, rdata:   x, rd_en: 0, empty: 1
[SCB] op: x, wdata: 212, wr_en: 1, full: 0, rdata:   x, rd_en: 0, empty: 1
[SCB] data stored in queue : 212
'{212}
--------------------
[GEN] op: 1, wdata: 136, wr_en: x, full: x, rdata:   x, rd_en: x, empty: x
[DRV] op: 1, wdata: 136, wr_en: x, full: x, rdata:   x, rd_en: x, empty: x
[MON] op: x, wdata: 136, wr_en: 1, full: 0, rdata: 212, rd_en: 0, empty: 0
[SCB] op: x, wdata: 136, wr_en: 1, full: 0, rdata: 212, rd_en: 0, empty: 0
[SCB] data stored in queue : 136
'{136,212}
--------------------
[GEN] op: 0, wdata:   5, wr_en: x, full: x, rdata:   x, rd_en: x, empty: x
[DRV] op: 0, wdata:   5, wr_en: x, full: x, rdata:   x, rd_en: x, empty: x
[MON] op: x, wdata: 136, wr_en: 0, full: 0, rdata: 212, rd_en: 1, empty: 0
[SCB] op: x, wdata: 136, wr_en: 0, full: 0, rdata: 212, rd_en: 1, empty: 0
[SCB] data read in queue : 212
PASS!!!!
'{136}
--------------------
[GEN] op: 1, wdata: 212, wr_en: x, full: x, rdata:   x, rd_en: x, empty: x
[DRV] op: 1, wdata: 212, wr_en: x, full: x, rdata:   x, rd_en: x, empty: x
[MON] op: x, wdata: 212, wr_en: 1, full: 0, rdata: 136, rd_en: 0, empty: 0
[SCB] op: x, wdata: 212, wr_en: 1, full: 0, rdata: 136, rd_en: 0, empty: 0
[SCB] data stored in queue : 212
'{212,136}
--------------------
[GEN] op: 0, wdata:  72, wr_en: x, full: x, rdata:   x, rd_en: x, empty: x
[DRV] op: 0, wdata:  72, wr_en: x, full: x, rdata:   x, rd_en: x, empty: x
[MON] op: x, wdata: 212, wr_en: 0, full: 0, rdata: 136, rd_en: 1, empty: 0
[SCB] op: x, wdata: 212, wr_en: 0, full: 0, rdata: 136, rd_en: 1, empty: 0
[SCB] data read in queue : 136
PASS!!!!
'{212}
--------------------
[GEN] op: 0, wdata: 197, wr_en: x, full: x, rdata:   x, rd_en: x, empty: x
[DRV] op: 0, wdata: 197, wr_en: x, full: x, rdata:   x, rd_en: x, empty: x
[MON] op: x, wdata: 212, wr_en: 0, full: 0, rdata: 212, rd_en: 1, empty: 0
[SCB] op: x, wdata: 212, wr_en: 0, full: 0, rdata: 212, rd_en: 1, empty: 0
[SCB] data read in queue : 212
PASS!!!!
'{}
--------------------
[GEN] op: 0, wdata: 152, wr_en: x, full: x, rdata:   x, rd_en: x, empty: x
[DRV] op: 0, wdata: 152, wr_en: x, full: x, rdata:   x, rd_en: x, empty: x
[MON] op: x, wdata: 212, wr_en: 0, full: 0, rdata:   x, rd_en: 1, empty: 1
[SCB] op: x, wdata: 212, wr_en: 0, full: 0, rdata:   x, rd_en: 1, empty: 1
[SCB] queue is empty
'{}
--------------------
[GEN] op: 1, wdata: 137, wr_en: x, full: x, rdata:   x, rd_en: x, empty: x
[DRV] op: 1, wdata: 137, wr_en: x, full: x, rdata:   x, rd_en: x, empty: x
[MON] op: x, wdata: 137, wr_en: 1, full: 0, rdata:   x, rd_en: 0, empty: 1
[SCB] op: x, wdata: 137, wr_en: 1, full: 0, rdata:   x, rd_en: 0, empty: 1
[SCB] data stored in queue : 137
'{137}
--------------------
[GEN] op: 0, wdata:  74, wr_en: x, full: x, rdata:   x, rd_en: x, empty: x
[DRV] op: 0, wdata:  74, wr_en: x, full: x, rdata:   x, rd_en: x, empty: x
[MON] op: x, wdata: 137, wr_en: 0, full: 0, rdata: 137, rd_en: 1, empty: 0
[SCB] op: x, wdata: 137, wr_en: 0, full: 0, rdata: 137, rd_en: 1, empty: 0
[SCB] data read in queue : 137
PASS!!!!
'{}
--------------------
[GEN] op: 1, wdata: 164, wr_en: x, full: x, rdata:   x, rd_en: x, empty: x
[DRV] op: 1, wdata: 164, wr_en: x, full: x, rdata:   x, rd_en: x, empty: x
[MON] op: x, wdata: 164, wr_en: 1, full: 0, rdata:   x, rd_en: 0, empty: 1
[SCB] op: x, wdata: 164, wr_en: 1, full: 0, rdata:   x, rd_en: 0, empty: 1
[SCB] data stored in queue : 164
'{164}
--------------------
[GEN] op: 1, wdata: 124, wr_en: x, full: x, rdata:   x, rd_en: x, empty: x
[DRV] op: 1, wdata: 124, wr_en: x, full: x, rdata:   x, rd_en: x, empty: x
[MON] op: x, wdata: 124, wr_en: 1, full: 0, rdata: 164, rd_en: 0, empty: 0
[SCB] op: x, wdata: 124, wr_en: 1, full: 0, rdata: 164, rd_en: 0, empty: 0
[SCB] data stored in queue : 124
'{124,164}
--------------------
[GEN] op: 0, wdata: 187, wr_en: x, full: x, rdata:   x, rd_en: x, empty: x
[DRV] op: 0, wdata: 187, wr_en: x, full: x, rdata:   x, rd_en: x, empty: x
[MON] op: x, wdata: 124, wr_en: 0, full: 0, rdata: 164, rd_en: 1, empty: 0
[SCB] op: x, wdata: 124, wr_en: 0, full: 0, rdata: 164, rd_en: 1, empty: 0
[SCB] data read in queue : 164
PASS!!!!
'{124}
--------------------
[GEN] op: 1, wdata:   8, wr_en: x, full: x, rdata:   x, rd_en: x, empty: x
[DRV] op: 1, wdata:   8, wr_en: x, full: x, rdata:   x, rd_en: x, empty: x
[MON] op: x, wdata:   8, wr_en: 1, full: 0, rdata: 124, rd_en: 0, empty: 0
[SCB] op: x, wdata:   8, wr_en: 1, full: 0, rdata: 124, rd_en: 0, empty: 0
[SCB] data stored in queue :   8
'{8,124}
--------------------
[GEN] op: 0, wdata:  52, wr_en: x, full: x, rdata:   x, rd_en: x, empty: x
[DRV] op: 0, wdata:  52, wr_en: x, full: x, rdata:   x, rd_en: x, empty: x
[MON] op: x, wdata:   8, wr_en: 0, full: 0, rdata: 124, rd_en: 1, empty: 0
[SCB] op: x, wdata:   8, wr_en: 0, full: 0, rdata: 124, rd_en: 1, empty: 0
[SCB] data read in queue : 124
PASS!!!!
'{8}
--------------------
[GEN] op: 0, wdata:  45, wr_en: x, full: x, rdata:   x, rd_en: x, empty: x
[DRV] op: 0, wdata:  45, wr_en: x, full: x, rdata:   x, rd_en: x, empty: x
[MON] op: x, wdata:   8, wr_en: 0, full: 0, rdata:   8, rd_en: 1, empty: 0
[SCB] op: x, wdata:   8, wr_en: 0, full: 0, rdata:   8, rd_en: 1, empty: 0
[SCB] data read in queue :   8
PASS!!!!
'{}
--------------------
[GEN] op: 0, wdata: 166, wr_en: x, full: x, rdata:   x, rd_en: x, empty: x
[DRV] op: 0, wdata: 166, wr_en: x, full: x, rdata:   x, rd_en: x, empty: x
[MON] op: x, wdata:   8, wr_en: 0, full: 0, rdata:  50, rd_en: 1, empty: 1
[SCB] op: x, wdata:   8, wr_en: 0, full: 0, rdata:  50, rd_en: 1, empty: 1
[SCB] queue is empty
'{}
--------------------
[GEN] op: 1, wdata: 148, wr_en: x, full: x, rdata:   x, rd_en: x, empty: x
[DRV] op: 1, wdata: 148, wr_en: x, full: x, rdata:   x, rd_en: x, empty: x
[MON] op: x, wdata: 148, wr_en: 1, full: 0, rdata:  50, rd_en: 0, empty: 1
[SCB] op: x, wdata: 148, wr_en: 1, full: 0, rdata:  50, rd_en: 0, empty: 1
[SCB] data stored in queue : 148
'{148}
--------------------
[GEN] op: 1, wdata: 159, wr_en: x, full: x, rdata:   x, rd_en: x, empty: x
[DRV] op: 1, wdata: 159, wr_en: x, full: x, rdata:   x, rd_en: x, empty: x
[MON] op: x, wdata: 159, wr_en: 1, full: 0, rdata: 148, rd_en: 0, empty: 0
[SCB] op: x, wdata: 159, wr_en: 1, full: 0, rdata: 148, rd_en: 0, empty: 0
[SCB] data stored in queue : 159
'{159,148}
--------------------
[GEN] op: 0, wdata: 225, wr_en: x, full: x, rdata:   x, rd_en: x, empty: x
[DRV] op: 0, wdata: 225, wr_en: x, full: x, rdata:   x, rd_en: x, empty: x
[MON] op: x, wdata: 159, wr_en: 0, full: 0, rdata: 148, rd_en: 1, empty: 0
[SCB] op: x, wdata: 159, wr_en: 0, full: 0, rdata: 148, rd_en: 1, empty: 0
[SCB] data read in queue : 148
PASS!!!!
'{159}
--------------------
[GEN] op: 0, wdata: 134, wr_en: x, full: x, rdata:   x, rd_en: x, empty: x
[DRV] op: 0, wdata: 134, wr_en: x, full: x, rdata:   x, rd_en: x, empty: x
[MON] op: x, wdata: 159, wr_en: 0, full: 0, rdata: 159, rd_en: 1, empty: 0
[SCB] op: x, wdata: 159, wr_en: 0, full: 0, rdata: 159, rd_en: 1, empty: 0
[SCB] data read in queue : 159
PASS!!!!
'{}
--------------------
[GEN] op: 0, wdata: 140, wr_en: x, full: x, rdata:   x, rd_en: x, empty: x
[DRV] op: 0, wdata: 140, wr_en: x, full: x, rdata:   x, rd_en: x, empty: x
[MON] op: x, wdata: 159, wr_en: 0, full: 0, rdata: 133, rd_en: 1, empty: 1
[SCB] op: x, wdata: 159, wr_en: 0, full: 0, rdata: 133, rd_en: 1, empty: 1
[SCB] queue is empty
'{}
--------------------
[GEN] op: 0, wdata:  42, wr_en: x, full: x, rdata:   x, rd_en: x, empty: x
[DRV] op: 0, wdata:  42, wr_en: x, full: x, rdata:   x, rd_en: x, empty: x
